{
  "images" : [
    {
      "idiom" : "universal",
      "filename" : "Screen Shot 2019-03-28 at 5.29.00 PM.png",
      "scale" : "1x"
    },
    {
      "idiom" : "universal",
      "filename" : "Screen Shot 2019-03-28 at 5.29.00 PM@2x.png",
      "scale" : "2x"
    },
    {
      "idiom" : "universal",
      "filename" : "Screen Shot 2019-03-28 at 5.29.00 PM@3x.png",
      "scale" : "3x"
    }
  ],
  "info" : {
    "version" : 1,
    "author" : "xcode"
  }
}